Zad 1
who
whoami
tty

Zad 2
działa

Zad 3
chmod 760 18 //inni musza miec mozliwosc pisania
mozna sie komunikowac w ten sposob

Zad 4
cat | tee /dev/pts/0 /dev/pts/2


Zad 5
A) cat > /dev/pts/drugi_terminal   //dziala
B) ls-ll 2> /dev/pts/2    //dziala

Zad 6
write 
mesg //usuwa prawo do pisania dla grupy i innych uzytkowanikow

Zad 7
plik null ma prawa crw-rw-rw-
tak

Zad 8
stty
stty -a
ssty -echo
stty sane

Zad 9
       echo $'\e[0;1m'
          echo $'\e[0;4m'
          echo $'\e[01;35m'
          echo $'\e[01;36m'



